{
    "Fluid dynamics": {
        "Output": {
            "Save every n timesteps": "2",
            "Serialize solution": "true"
        },
        "Time solver": {
            "Final time": "0.02"
        }
    }
}
