{
    "Test fluid dynamics cylinder": {
        "Boundary conditions": {
            "Neumann outlet": {
                "Ramp": {
                    "Final value": "-133.32"
                }
            },
            "Type of inlet condition": "Neumann"
        },
        "CSV test": {
            "Reference solution filename": "fluid_dynamics_cylinder/neumann.csv"
        }
    }
}
