{
    "Fluid dynamics": {
        "Mesh and space discretization": {
            "Number of refinements": "1",
            "Velocity FE space degree": "2"
        },
        "Stabilization and turbulence models": {
            "Model": "None"
        }
    },
    "Test fluid dynamics cylinder": {
        "CSV test": {
            "Reference solution filename": "fluid_dynamics_cylinder/nostab.csv"
        }
    }
}
