time,flowrate_boundary_wall,flowrate_boundary_inlet,flowrate_boundary_outlet,pressure_boundary_wall,pressure_boundary_inlet,pressure_boundary_outlet,
0.0000000000e+00,0.0000000000e+00,0.0000000000e+00,0.0000000000e+00,0.0000000000e+00,0.0000000000e+00,0.0000000000e+00,
1.0000000000e-02,1.8838048105e-22,-3.0142701893e-06,3.0142701893e-06,5.2429006527e+01,1.0462436704e+02,2.3555935481e-01,
2.0000000000e-02,4.9318650220e-22,-7.8914618069e-06,7.8914618069e-06,8.9848695831e+01,1.7928636239e+02,3.5702676886e-01,
3.0000000000e-02,4.9318650220e-22,-7.8914618069e-06,7.8914618069e-06,8.9357211547e+00,1.7896459382e+01,-6.1097452242e-02,
4.0000000000e-02,1.8838048105e-22,-3.0142701893e-06,3.0142701893e-06,-8.3064686965e+01,-1.6561949518e+02,-4.0819675502e-01,
5.0000000000e-02,0.0000000000e+00,0.0000000000e+00,-2.3399946912e-19,-5.9401996788e+01,-1.1857365626e+02,-1.6087701354e-01,
