time,flowrate_boundary_wall,flowrate_boundary_inlet,flowrate_boundary_outlet,pressure_boundary_wall,pressure_boundary_inlet,pressure_boundary_outlet,
0.0000000000e+00,0.0000000000e+00,0.0000000000e+00,0.0000000000e+00,0.0000000000e+00,0.0000000000e+00,0.0000000000e+00,
1.0000000000e-02,0.0000000000e+00,-1.6900023735e-06,1.6900023735e-06,1.6664920725e+01,4.5928702687e+01,-1.2598856755e+01,
2.0000000000e-02,0.0000000000e+00,-6.3198263035e-06,6.3198263035e-06,3.7282366072e+01,1.2025454905e+02,-4.5712921572e+01,
3.0000000000e-02,0.0000000000e+00,-1.1826605614e-05,1.1826605614e-05,1.6746888198e+01,1.2024278282e+02,-8.6853921387e+01,
4.0000000000e-02,0.0000000000e+00,-1.6002854567e-05,1.6002854567e-05,-3.7155043466e+01,4.5829656104e+01,-1.2027999327e+02,
5.0000000000e-02,0.0000000000e+00,-1.9295632740e-05,1.9295632740e-05,-6.6558900678e+01,-1.9663053104e-01,-1.3304656389e+02,
