time,flowrate_boundary_wall,flowrate_boundary_inlet,flowrate_boundary_outlet,pressure_boundary_wall,pressure_boundary_inlet,pressure_boundary_outlet,sigma_n,sigma_pos_n,sigma_neg_n,mod_0D_rhs0,mod_0D_curv_force0,mod_0D_curv_term0,mod_0D_denom0,OA0,opening_coeff_surface,velocity_coeff_surface,
0.0000000000e+00,0.0000000000e+00,0.0000000000e+00,0.0000000000e+00,0.0000000000e+00,0.0000000000e+00,0.0000000000e+00,0.0000000000e+00,0.0000000000e+00,0.0000000000e+00,0.0000000000e+00,0.0000000000e+00,9.5538887566e-03,1.7015338982e-03,0.0000000000e+00,0.0000000000e+00,0.0000000000e+00,
1.0000000000e-02,0.0000000000e+00,-3.3560824787e-06,3.3560824787e-06,4.5187512582e+01,8.9898438801e+01,2.6226929864e-01,0.0000000000e+00,0.0000000000e+00,0.0000000000e+00,0.0000000000e+00,0.0000000000e+00,9.5538887566e-03,1.7015338982e-03,0.0000000000e+00,9.5491502813e-02,9.5491502813e+00,
2.0000000000e-02,0.0000000000e+00,-8.7863379983e-06,8.7863379983e-06,4.1559901001e+01,8.7837297046e+01,3.9919229236e-01,-2.2656123803e-02,-2.8954746306e-02,-6.2986225022e-03,1.2664242516e+01,-1.1825211414e-02,-2.2713226574e-03,1.7796462489e-03,0.0000000000e+00,3.4549150281e-01,2.5000000000e+01,
3.0000000000e-02,0.0000000000e+00,-8.7863379983e-06,8.7863379983e-06,-5.4172521948e+01,-1.0099707272e+02,-6.8266645139e-02,-1.3954151405e-02,-1.9609726294e-02,-5.6555748887e-03,1.1620690392e+01,-1.4399103486e-02,-4.8452147297e-03,1.1884113512e-03,0.0000000000e+00,6.5450849719e-01,3.0901699437e+01,
4.0000000000e-02,0.0000000000e+00,-3.3560824787e-06,3.3560824787e-06,-1.6465403271e+02,-3.1623102929e+02,-4.5946519041e-01,-1.3387900159e-02,-1.8306438326e-03,1.1557256326e-02,1.5124599069e+01,-3.3403020511e-03,6.2135867055e-03,8.8296536505e-04,0.0000000000e+00,9.0450849719e-01,2.5000000000e+01,
5.0000000000e-02,0.0000000000e+00,0.0000000000e+00,-5.9010072283e-19,-6.7807672977e+01,-1.3201905980e+02,-1.8035384565e-01,-2.4166238754e-02,1.4960864019e-02,3.9127102773e-02,3.1924402995e+01,-4.4512550895e-03,5.1026336670e-03,7.5558895205e-04,0.0000000000e+00,1.0000000000e+00,9.5491502813e+00,
