{
    "Test ALE": {
        "Arbitrary Lagrangian Eulerian": {
            "Input file": {
                "Time subinterval duration": "0.5",
                "Time subintervals": "3"
            },
            "Lifting": {
                "Linear solver": {
                    "Solver type": "CG"
                },
                "Tags Dirichlet": "2, 3"
            },
            "Output": {
                "Export mesh at every output": "true",
                "Incremental displacement name": "displ_incr",
                "Total displacement name": "displ_tot",
                "Velocity": "velocity"
            }
        }
    }
}
