time,volume,barycenter_0,barycenter_1,barycenter_2,mom_inertia_0,mom_inertia_1,mom_inertia_2,
0,1.0000000000e-03,5.0000000000e-02,5.0000000000e-02,5.0000000000e-02,3.3333333333e-06,3.3333333333e-06,3.3333333333e-06,
1,1.0588310132e-03,5.0000000002e-02,1.5000000000e-01,5.5000000000e-02,3.4968815130e-06,2.4673501778e-05,4.2843013079e-06,
