time,flowrate_boundary_wall,flowrate_boundary_inlet,flowrate_boundary_outlet,pressure_boundary_wall,pressure_boundary_inlet,pressure_boundary_outlet,
0.0000000000e+00,0.0000000000e+00,0.0000000000e+00,0.0000000000e+00,0.0000000000e+00,0.0000000000e+00,0.0000000000e+00,
1.0000000000e-02,0.0000000000e+00,-3.3560801891e-06,1.6927362484e-06,3.7978358866e+01,8.7549498983e+01,1.3136802957e-01,
2.0000000000e-02,0.0000000000e+00,-8.7863144761e-06,3.9253925670e-06,5.8722914501e+01,1.4075008994e+02,1.5674820395e-01,
3.0000000000e-02,0.0000000000e+00,-8.7862860880e-06,9.1501749684e-07,-3.1285845326e+01,-3.9275455817e+01,-2.7101376951e-01,
4.0000000000e-02,0.0000000000e+00,-3.3560478982e-06,-7.3463881923e-06,-1.3063176845e+02,-2.3885035380e+02,-6.0861711773e-01,
5.0000000000e-02,0.0000000000e+00,0.0000000000e+00,-1.3361439052e-05,-1.0106008361e+02,-1.8132812127e+02,-3.2612565734e-01,
