time,flowrate_boundary_wall,flowrate_boundary_inlet,flowrate_boundary_outlet,pressure_boundary_wall,pressure_boundary_inlet,pressure_boundary_outlet,
0.0000000000e+00,0.0000000000e+00,0.0000000000e+00,0.0000000000e+00,0.0000000000e+00,0.0000000000e+00,0.0000000000e+00,
1.0000000000e-02,0.0000000000e+00,-9.5491502813e-08,9.5491502813e-08,8.3287862293e-01,1.6596450912e+00,6.1138384666e-03,
2.0000000000e-02,0.0000000000e+00,-3.4549150275e-07,3.4549150275e-07,2.2571482585e+00,4.4986585914e+00,1.5551786775e-02,
3.0000000000e-02,0.0000000000e+00,-6.5450849696e-07,6.5450849697e-07,2.9095724948e+00,5.7999358079e+00,1.8820286146e-02,
4.0000000000e-02,0.0000000000e+00,-9.0450849733e-07,9.0450849733e-07,2.4711711146e+00,4.9263616082e+00,1.5384973506e-02,
5.0000000000e-02,0.0000000000e+00,-1.0000000001e-06,1.0000000001e-06,1.1017457387e+00,2.1965337028e+00,6.5977571792e-03,
