time,flowrate_boundary_wall,flowrate_boundary_inlet,flowrate_boundary_outlet,pressure_boundary_wall,pressure_boundary_inlet,pressure_boundary_outlet,
0.0000000000e+00,0.0000000000e+00,0.0000000000e+00,0.0000000000e+00,0.0000000000e+00,0.0000000000e+00,0.0000000000e+00,
1.0000000000e-02,0.0000000000e+00,-3.3560824787e-06,3.3560824787e-06,6.1600284185e+01,1.2271707758e+02,5.0117321531e-01,
2.0000000000e-02,0.0000000000e+00,-8.7863379983e-06,8.7863379983e-06,1.0105427640e+02,2.0155829291e+02,5.3702205766e-01,
3.0000000000e-02,0.0000000000e+00,-8.7863379983e-06,8.7863379983e-06,1.1902924861e+01,2.3581159207e+01,-3.4080714453e-02,
4.0000000000e-02,0.0000000000e+00,-3.3560824787e-06,3.3560824787e-06,-9.1336752174e+01,-1.8238654819e+02,-5.2510168987e-01,
5.0000000000e-02,0.0000000000e+00,0.0000000000e+00,8.0633566112e-20,-6.6304160063e+01,-1.3244148984e+02,-2.2165642358e-01,
