{
    "Test lifting": {
        "CSV test": {
            "Reference solution filename": "lifting/elastic.csv"
        },
        "Lifting": {
            "Lifting operator": "Linear elasticity",
            "Linear solver": {
                "Tolerance": "1e-12"
            },
            "Tags Dirichlet": "4, 5"
        },
        "Output": {
            "CSV filename": "elastic.csv"
        }
    }
}
